making_tables • medicaldata
…
Challenge

Now try to do this with the indo_rct dataset, using the treatment
variable group and the outcome variable of
outcome. Add a total row, percentages, and a title.

indo_rct 
#> # A tibble: 602 × 33
#>       id site    age  risk gender   outcome sod   pep   recpanc psphinc precut
#>    <dbl> <fct> <dbl> <dbl> <fct>    <fct>   <fct> <fct> <fct>   <fct>   <fct> 
#>  1  1001 1_UM     26   2   1_female 1_yes   1_yes 0_no  1_yes   0_no    0_no  
#>  2  1002 1_UM     24   1   2_male   0_no    0_no  1_yes 0_no    0_no    0_no  
#>  3  1003 1_UM     57   1   1_female 0_no    1_yes 0_no  0_no    0_no    0_no  
#>  4  1004 1_UM     29   2   1_female 1_yes   1_yes 0_no  0_no    0_no    0_no  
#>  5  1005 1_UM     38   3.5 1_female 0_no    1_yes 1_yes 0_no    1_yes   0_no  
#>  6  1006 1_UM     59   3   1_female 0_no    1_yes 0_no  0_no    0_no    1_yes 
#>  7  1007 1_UM     60   1.5 1_female 0_no    0_no  0_no  1_yes   0_no    0_no  
#>  8  1008 1_UM     29   1   2_male   0_no    0_no  0_no  0_no    0_no    0_no  
#>  9  1009 1_UM     53   2   2_male   0_no    0_no  0_no  1_yes   0_no    0_no  
#> 10  1010 1_UM     20   2   2_male   0_no    0_no  0_no  0_no    0_no    1_yes 
#> # ℹ 592 more rows
#> # ℹ 22 more variables: difcan <fct>, pneudil <fct>, amp <fct>, paninj <fct>,
#> #   acinar <fct>, brush <fct>, asa81 <fct>, asa325 <fct>, asa <fct>,
#> #   prophystent <fct>, therastent <fct>, pdstent <fct>, sodsom <fct>,
#> #   bsphinc <fct>, bstent <fct>, chole <fct>, pbmal <fct>, train <fct>,
#> #   status <fct>, type <fct>, rx <fct>, bleed <dbl>
…
