making_tables • medicaldata
…
14  (26.9%)

Total

55 (100.0%)

52 (100.0%)

Try this Yourself

Now try this yourself, but instead of using the ordinal radiologic_6m outcome, use the improved dichotomous outcome in its place. Copy the code block below and add the piping and additional lines to produce a 2 x 2 table of outcomes. You can websearch for janitor tabyl adorn_title to learn how to add a title to your table.

strep_tb
#> # A tibble: 107 × 13
#>    patient_id arm     dose_strep_g dose_PAS_g gender baseline_condition
#>    <chr>      <fct>          <dbl>      <dbl> <fct>  <fct>             
#>  1 0001       Control            0          0 M      1_Good            
#>  2 0002       Control            0          0 F      1_Good            
#>  3 0003       Control            0          0 F      1_Good            
#>  4 0004       Control            0          0 M      1_Good            
#>  5 0005       Control            0          0 F      1_Good            
#>  6 0006       Control            0          0 M      1_Good            
#>  7 0007       Control            0          0 F      1_Good            
#>  8 0008       Control            0          0 M      1_Good            
#>  9 0009       Control            0          0 F      2_Fair            
#> 10 0010       Control            0          0 M      2_Fair            
#> # … with 97 more rows, and 7 more variables: baseline_temp <fct>,
#> #   baseline_esr <fct>, baseline_cavitation <fct>, strep_resistance <fct>,
#> #   radiologic_6m <fct>, rad_num <dbl>, improved <lgl>

Challenge

Now try to do this with the indo_rct dataset, using the treatment variable group and the outcome variable of outcome. Add a total row, percentages, and a title.

indo_rct 
#> # A tibble: 602 × 33
#>       id site    age  risk gender   outcome sod   pep   recpanc psphinc precut
#>    <dbl> <fct> <dbl> <dbl> <fct>    <fct>   <fct> <fct> <fct>   <fct>   <fct> 
#>  1  1001 1_UM     26   2   1_female 1_yes   1_yes 0_no  1_yes   0_no    0_no  
#>  2  1002 1_UM     24   1   2_male   0_no    0_no  1_yes 0_no    0_no    0_no  
#>  3  1003 1_UM     57   1   1_female 0_no    1_yes 0_no  0_no    0_no    0_no  
#>  4  1004 1_UM     29   2   1_female 1_yes   1_yes 0_no  0_no    0_no    0_no  
#>  5  1005 1_UM     38   3.5 1_female 0_no    1_yes 1_yes 0_no    1_yes   0_no  
#>  6  1006 1_UM     59   3   1_female 0_no    1_yes 0_no  0_no    0_no    1_yes 
#>  7  1007 1_UM     60   1.5 1_female 0_no    0_no  0_no  1_yes   0_no    0_no  
#>  8  1008 1_UM     29   1   2_male   0_no    0_no  0_no  0_no    0_no    0_no  
#>  9  1009 1_UM     53   2   2_male   0_no    0_no  0_no  1_yes   0_no    0_no  
#> 10  1010 1_UM     20   2   2_male   0_no    0_no  0_no  0_no    0_no    1_yes 
#> # … with 592 more rows, and 22 more variables: difcan <fct>, pneudil <fct>,
#> #   amp <fct>, paninj <fct>, acinar <fct>, brush <fct>, asa81 <fct>,
#> #   asa325 <fct>, asa <fct>, prophystent <fct>, therastent <fct>,
#> #   pdstent <fct>, sodsom <fct>, bsphinc <fct>, bstent <fct>, chole <fct>,
#> #   pbmal <fct>, train <fct>, status <fct>, type <fct>, rx <fct>, bleed <dbl>
…
